<svg xmlns="http://www.w3.org/2000/svg" width="16.384" height="9.368" viewBox="0 0 16.384 9.368">
  <path id="Icon_ionic-ios-arrow-down" data-name="Icon ionic-ios-arrow-down" d="M14.382,17.79l6.195-6.2a1.166,1.166,0,0,1,1.654,0,1.181,1.181,0,0,1,0,1.659l-7.019,7.024a1.169,1.169,0,0,1-1.615.034L6.529,13.254A1.171,1.171,0,0,1,8.183,11.6Z" transform="translate(-6.188 -11.246)" fill="#9eabab"/>
</svg>
