<svg version="1.2" baseProfile="tiny-ps" xmlns="http://www.w3.org/2000/svg" viewBox="0 0 514 1024" width="514" height="1024">
	<title>round9-svg</title>
	<style>
		tspan { white-space:pre }
		.shp0 { fill: #fec908 } 
		.shp1 { fill: #fec90b } 
	</style>
	<path id="Layer" class="shp0" d="M512 876.1L512 876.1C312.4 876.1 149.9 713.7 149.9 514C149.9 314.3 312.4 151.9 512 151.9L512 151.9L512 11.9L512 11.9C444.3 11.9 378.5 25.2 316.6 51.4C256.8 76.7 203.1 112.9 157 159C110.9 205.1 74.7 258.8 49.4 318.6C23.2 380.5 9.9 446.3 9.9 514C9.9 581.7 23.2 647.5 49.4 709.4C74.7 769.2 110.9 822.9 157 869C203.1 915.1 256.8 951.3 316.6 976.6C378.5 1002.8 444.3 1016.1 512 1016.1L512 1016.1L512 876.1Z" />
	<path id="Layer" fill-rule="evenodd" class="shp1" d="M512 511.6C505.2 513.5 498.1 514.5 490.7 514.5C446 514.5 409.8 478.3 409.8 433.6C409.8 388.9 446 352.7 490.7 352.7C498.1 352.7 505.2 353.7 512 355.6L512 265.3C505 264.4 497.9 264 490.7 264C397 264 321 340 321 433.7C321 524.6 392.4 598.8 482.2 603.2L385.3 764.3L489.4 764.3L512 726.8L512 511.6L512 511.6Z" />
</svg>