<?xml version="1.0" encoding="utf-8"?>
<!-- Generator: Adobe Illustrator 25.0.0, SVG Export Plug-In . SVG Version: 6.00 Build 0)  -->
<svg version="1.1" id="Layer_1" xmlns="http://www.w3.org/2000/svg" xmlns:xlink="http://www.w3.org/1999/xlink" x="0px" y="0px"
	 viewBox="0 0 1200 1200" style="enable-background:new 0 0 1200 1200;" xml:space="preserve">
<style type="text/css">
	.st0{fill:#FEC908;}
	.st1{fill-rule:evenodd;clip-rule:evenodd;fill:#FEC90B;}
</style>
<path class="st0" d="M606,962.1C606,962.1,606,962.1,606,962.1c-199.6,0-362.1-162.4-362.1-362.1S406.4,237.9,606,237.9c0,0,0,0,0,0
	v-140c0,0,0,0,0,0c-67.7,0-133.5,13.3-195.4,39.5C350.8,162.7,297.1,198.9,251,245s-82.3,99.8-107.6,159.6
	c-26.2,61.9-39.5,127.7-39.5,195.4c0,67.7,13.3,133.5,39.5,195.4C168.7,855.2,204.9,908.9,251,955s99.8,82.3,159.6,107.6
	c61.9,26.2,127.7,39.5,195.4,39.5c0,0,0,0,0,0V962.1z"/>
<path class="st1" d="M606,597.6c-6.8,1.9-13.9,2.9-21.3,2.9c-44.7,0-80.9-36.2-80.9-80.9c0-44.7,36.2-80.9,80.9-80.9
	c7.4,0,14.5,1,21.3,2.9v-90.3c-7-0.9-14.1-1.3-21.3-1.3c-93.7,0-169.7,76-169.7,169.7c0,90.9,71.4,165.1,161.2,169.5l-96.9,161.1
	h104.1l22.6-37.5V597.6z"/>
</svg>
